{
  "posts": [
    {
      "id": "1",
      "views": 100,
      "content": "some content here"
    },
    {
      "id": "2",
      "title": "another title",
      "views": 200,
      "content": "some content here :kjbzkfmmdkjfmezkdfhazdogzagfgkvhlbjklufulimoùdjhaiuzyudamùdazodgaudgazùdjahzimdyufazsdimoù"
    },
    {
      "id": "3",
      "title": "yet another title",
      "views": 300,
      "content": "some content here 2"
    },
    {
      "id": "4",
      "title": "yet another title",
      "views": 400,
      "content": "Random content"
    },
    {
      "id": "5",
      "title": "yet another title",
      "views": 500,
      "content": "Another random content"
    },
    {
      "id": "6",
      "title": "a title",
      "views": 100,
      "content": "some content here"
    },
    {
      "id": "7",
      "title": "another title",
      "views": 200,
      "content": "some content here :kjbzkfmmdkjfmezkdfhazdogzagfgkvhlbjklufulimoùdjhaiuzyudamùdazodgaudgazùdjahzimdyufazsdimoù"
    },
    {
      "id": "8",
      "title": "yet another title",
      "views": 300,
      "content": "some content here 2"
    },
    {
      "id": "9",
      "title": "yet another title",
      "views": 400,
      "content": "Random content"
    },
    {
      "id": "10",
      "title": "yet another title",
      "views": 500,
      "content": "Another random content"
    },
    {
      "id": "11",
      "title": "a title",
      "views": 100,
      "content": "some content here"
    },
    {
      "id": "12",
      "title": "another title",
      "views": 200,
      "content": "some content here :kjbzkfmmdkjfmezkdfhazdogzagfgkvhlbjklufulimoùdjhaiuzyudamùdazodgaudgazùdjahzimdyufazsdimoù"
    },
    {
      "id": "13",
      "title": "yet another title",
      "views": 300,
      "content": "some content here 2"
    },
    {
      "id": "14",
      "title": "yet another title",
      "views": 400,
      "content": "Random content"
    },
    {
      "id": "15",
      "title": "yet another title",
      "views": 500,
      "content": "Another random content"
    },
    {
      "id": "16",
      "title": "a title",
      "views": 100,
      "content": "some content here"
    },
    {
      "id": "121",
      "title": "another title",
      "views": 200,
      "content": "some content here :kjbzkfmmdkjfmezkdfhazdogzagfgkvhlbjklufulimoùdjhaiuzyudamùdazodgaudgazùdjahzimdyufazsdimoù"
    },
    {
      "id": "32",
      "title": "yet another title",
      "views": 300,
      "content": "some content here 2"
    },
    {
      "id": "411",
      "title": "yet another title",
      "views": 400,
      "content": "Random content"
    },
    {
      "id": "511",
      "title": "yet another title",
      "views": 500,
      "content": "Another random content"
    },
    {
      "id": "d830",
      "title": "Nouvelle note",
      "content": "Contenu de la nouvelle note"
    },
    {
      "id": "c687",
      "title": "Nouvelle note",
      "content": "Contenu de la nouvelle note"
    },
    {
      "id": "f378",
      "title": "Nouvelle note",
      "content": "Contenu de la nouvelle note"
    }
  ],
  "comments": [
    {
      "id": "1",
      "text": "a comment about post 1",
      "postId": "1"
    },
    {
      "id": "2",
      "text": "another comment about post 1",
      "postId": "1"
    }
  ],
  "profile": {
    "name": "typicode"
  }
}