{
    "style": "default",
    "tailwind": {
    "config": "tailwind.config.js",
        "css": "src/app/app.css",
        "baseColor": "zinc",
        "cssVariables": true
},
    "rsc": false,
    "tsx": false,
    "aliases": {
    "utils": "~/lib/utils",
        "components": "~/components"
},
    "compilerOptions": {
        "paths": {
            "@/*": ["./src/*"]
        }
    }
}